{
  "perl" : "6.d",
  "name" : "sublist",
  "api" : "1",
  "auth" : "zef:yabobay",
  "version" : "1.2",
  "description" : "Find out where one list lies inside another",
  "authors" : [ "yabobay" ],
  "license" : "LGPL-3.0-only",
  "provides" : {
    "sublist" : "lib/sublist.rakumod"
  },
  "source-url" : "https://gitea.com/yabobay/sublist"
}
